## Interface: 90002
## Version: 9.0.2
## Title: BaikUnitFrame
## Author: Nikpmup
## Notes: Blizzard UnitFrame replacement
## Dependencies: BaikCore
## OptionalDeps: Ace3
## X-Embeds: Ace3
BaikUnitFrame.lua
Include.xml
